#Anjiang Events

namespace = anjiang

# 'The Coming Storm'

country_event = {
	id = anjiang.1
	title = anjiang.1.t
	desc = anjiang.1.d
	picture = CIVIL_WAR_eventPicture
	
	is_triggered_only = yes

	trigger =	{
		always = yes
	}
	
	option = { #We Must Strike First
		name = anjiang.1.a
		
		jinqiu_area = { add_permanent_claim = ROOT }
		4851 = { add_permanent_claim = ROOT }

	}
}

# 'Pull Back The Curtain'

country_event = {
	id = anjiang.2
	title = anjiang.2.t
	desc = anjiang.2.d
	picture = OVEREXTENSION_eventPicture
	
	is_triggered_only = yes

	trigger =	{
		always = yes
	}
	
	option = { #Expose Their Schemes!
		name = anjiang.2.a
		
		4849 = { add_permanent_claim = ROOT }
		
		Y10 = {
			remove_historical_friend = Y06
			remove_historical_friend = Y07
			remove_historical_friend = Y08
			remove_historical_friend = Y04
		}
		
		Y07 = {
			country_event = { id = anjiang.3 }
		}
		Y08 = {
			country_event = { id = anjiang.3 }
		}
		Y06 = {
			country_event = { id = anjiang.3 }
		}
		
	}
}

# Pull Back The Curtain Notification

country_event = {
	id = anjiang.3
	title = anjiang.3.t
	desc = anjiang.3.d
	picture = ANGRY_MOB_eventPicture
	
	is_triggered_only = yes

	trigger =	{
		always = yes
	}
	
	option = { #Oh No!
		name = anjiang.3.a 
		
		ai_chance = {
			factor = 100
		}
		
		add_trust = {
			who = Y10
			value = -30
			mutual = yes
		}
	}
	
	option = { #Player Opt Out
		name = anjiang.3.b
	}
}

# River Summit 1 - Anjiang Event

country_event = {
	id = anjiang.4
	title = anjiang.4.t
	desc = anjiang.4.d
	picture = STREET_SPEECH_eventPicture
	
	is_triggered_only = yes

	trigger =	{
		always = yes
	}
	
	option = { #Let's see how it goes...
		name = anjiang.4.a 
		
			Y07 = {
				country_event = { 
					id = anjiang.5 
					days = 4 
				}
			}
			Y08 = {
				country_event = { 
					id = anjiang.6
					days = 10
				}
			}
			Y06 = {
				country_event = { 
					id = anjiang.7 
					days = 21
				}
			}
	}
}

# River Summit 2 - Guhe Response

country_event = {
	id = anjiang.5
	title = anjiang.5.t
	desc = anjiang.5.d
	picture = ANGRY_MOB_eventPicture
	
	is_triggered_only = yes

	trigger =	{
		always = yes
	}
	
	option = { #Accept
		name = anjiang.5.a
		ai_chance = { factor = 50 }
		
		Y04 = { inherit = Y07 }
	}
	option = { #Decline
		name = anjiang.5.b
		ai_chance = {
			factor = 50
			
			modifier = {
				factor = 0
				Y04 = {
					has_country_flag = anjiang_stained_red
				}
			}
		}
	}
}
	
# River Summit 3 - Yanchung Response

country_event = {
	id = anjiang.6
	title = anjiang.6.t
	desc = anjiang.6.d
	picture = ANGRY_MOB_eventPicture
	
	is_triggered_only = yes

	trigger =	{
		always = yes
	}
	
	option = { #Accept
		name = anjiang.6.a
		ai_chance = { factor = 50 }
		
		Y04 = { inherit = Y08 }
	}
	option = { #Decline
		name = anjiang.6.b
		ai_chance = {
			factor = 50
			
			modifier = {
				factor = 0
				Y04 = {
					has_country_flag = anjiang_stained_red
					has_country_flag = anjiang_second_seat
				}
			}
		}
	}
}

# River Summit 2 - Zhinshi Response

country_event = {
	id = anjiang.7
	title = anjiang.7.t
	desc = anjiang.7.d
	picture = ANGRY_MOB_eventPicture
	
	is_triggered_only = yes

	trigger =	{
		always = yes
	}
	
	option = { #Accept
		name = anjiang.7.a
		ai_chance = { factor = 50 }
		
		Y04 = { inherit = Y06 }
	}
	option = { #Decline
		name = anjiang.7.b
		ai_chance = {
			factor = 50
			
			modifier = {
				factor = 0
				Y04 = {
					has_country_flag = anjiang_second_seat
				}
			}
		}
	}
}

# A Blade Stained Red

country_event = {
	id = anjiang.8
	title = anjiang.8.t
	desc = anjiang.8.d
	picture = ANGRY_MOB_eventPicture
	
	is_triggered_only = yes

	trigger =	{
		always = yes
	}
	
	option = { #oni woodchipper go brr
		name = anjiang.8.a
		
		4828 = {
			remove_ogre_minority_size_effect = yes
			change_religion = ROOT
			add_base_tax = -1
			add_base_production = -1
			add_base_manpower = -1
		}
		
		large_decrease_of_ogre_tolerance_effect = yes
	}
}
			